id,name,description,chart_template_id:id,type_tax_use,type,python_compute,python_compute_inv,amount,account_collected_id/id,account_paid_id/id,base_code_id/id,tax_code_id/id,ref_base_code_id/id,ref_tax_code_id/id,tax_sign,base_sign,ref_tax_sign,ref_base_sign,indicator,sequence
TX,Standard Rate Purchases (6%),TX,l10n_my,Purchase,percent,,,0.06,3036/000,3036/000,38,17,38,17,1,1,-1,-1,*,1
IS,Import Under Special Scheme (0%),IS,l10n_my,Purchase,percent,,,0,3036/000,3036/000,30,18,30,18,1,1,-1,-1,**,2
ZP,Zero Rated Purchases (0%),ZP,l10n_my,Purchase,percent,,,0,3036/000,3036/000,31,19,31,19,1,1,-1,-1,**,3
GP,GST Legislation Purchases (0%),GP,l10n_my,Purchase,percent,,,0,3036/000,3036/000,32,20,32,20,1,1,-1,-1,**,4
EP,Exempt Purchases (0%),EP,l10n_my,Purchase,percent,,,0,3036/000,3036/000,33,26,33,26,1,1,-1,-1,**,5
OP,Out of scope Purchases (0%),OP,l10n_my,Purchase,percent,,,0,3036/000,3036/000,34,27,34,27,1,1,-1,-1,**,6
NR,Non GST Registered Purchases (0%),NR,l10n_my,Purchase,percent,,,0,3036/000,3036/000,35,28,35,28,1,1,-1,-1,**,7
IM,Import of Goods Purchases (0%),IM,l10n_my,Purchase,percent,,,0.06,3036/000,3036/000,36,21,36,21,1,1,-1,-1,*,8
BL,Disallowance of Purchases (6%),BL,l10n_my,Purchase,percent,,,0.06,9000/075,9000/075,37,22,37,22,1,1,-1,-1,*,9
TX-E43,Directly Attributable to Incidental Exempt (6%),TX-E43,l10n_my,Purchase,percent,,,0.06,3036/000,3036/000,39,23,39,23,1,1,-1,-1,*,10
TX-N43,Directly Attributable to Non-Incidental Exempt (6%),TX-N43,l10n_my,Purchase,percent,,,0.06,3036/000,3036/000,40,24,40,24,1,1,-1,-1,*,11
TX-RE,Not Directly Attributable to Taxable or Exempt (6%),TX-RE,l10n_my,Purchase,percent,,,0.06,3036/000,3036/000,41,25,41,25,1,1,-1,-1,*,12
AJP,Adjustment Purchases (6%),AJP,l10n_my,Purchase,code,result = price_unit * 6/106,result = price_unit * 6/106,,3036/000,3036/000,42,29,42,29,1,1,-1,-1,*,13
SR,Standard Rate Sales (6%),SR,l10n_my,Sale,percent,,,0.06,4006/000,4006/000,43,7,43,7,1,1,-1,-1,*,1
DS,Deemed Sales (6%),DS,l10n_my,Sale,percent,,,0.06,4006/000,4006/000,44,8,44,8,1,1,-1,-1,*,2
ZRE,Export Zero rated sales (0%),ZRE,l10n_my,Sale,percent,,,0,4006/000,4006/000,46,9,46,9,1,1,-1,-1,**,3
ZRL,Local Zero rated sales (0%),ZRL,l10n_my,Sale,percent,,,0,4006/000,4006/000,45,10,45,10,1,1,-1,-1,**,4
OS,Out of Scope Sales (0%),OS,l10n_my,Sale,percent,,,0,4006/000,4006/000,47,11,47,11,1,1,-1,-1,**,5
RS,Relief Sales (0%),RS,l10n_my,Sale,percent,,,0,4006/000,4006/000,48,12,48,12,1,1,-1,-1,**,6
ES,Exempt Sales (0%),ES,l10n_my,Sale,percent,,,0,4006/000,4006/000,49,13,49,13,1,1,-1,-1,**,7
GS,Disregarded Sales (0%),GS,l10n_my,Sale,percent,,,0,4006/000,4006/000,50,14,50,14,1,1,-1,-1,**,8
ES43,Incidental Exempt Sales (0%),ES43,l10n_my,Sale,percent,,,0,4006/000,4006/000,51,15,51,15,1,1,-1,-1,**,9
AJS,Adjustment Sales (6%),AJS,l10n_my,Sale,code,result = price_unit * 6/106,result = price_unit * 6/106,,4006/000,4006/000,52,16,52,16,1,1,-1,-1,*,10
